…
```r
table1 <- dat %>%
  select(FILM, Fandango_Ratingvalue, RT_norm_round, Metacritic_norm_round, IMDB_norm_round) %>%
  pivot_longer(2:5, names_to = "Rating_site", values_to = "Rating")
table1
```

```
## # A tibble: 584 × 3
##    FILM                           Rating_site           Rating
##    <chr>                          <chr>                  <dbl>
##  1 Avengers: Age of Ultron (2015) Fandango_Ratingvalue     4.5
##  2 Avengers: Age of Ultron (2015) RT_norm_round            3.5
##  3 Avengers: Age of Ultron (2015) Metacritic_norm_round    3.5
##  4 Avengers: Age of Ultron (2015) IMDB_norm_round          4  
##  5 Cinderella (2015)              Fandango_Ratingvalue     4.5
##  6 Cinderella (2015)              RT_norm_round            4.5
##  7 Cinderella (2015)              Metacritic_norm_round    3.5
##  8 Cinderella (2015)              IMDB_norm_round          3.5
##  9 Ant-Man (2015)                 Fandango_Ratingvalue     4.5
## 10 Ant-Man (2015)                 RT_norm_round            4  
## # … with 574 more rows
```
…
