…
```r
library(timetk)
library(DT) 
library(dygraphs)
```


```r
#my friend
(Disney <- tq_get("DIS", get = "stock.prices"))
```

```
## # A tibble: 2,727 × 8
##    symbol date        open  high   low close   volume adjusted
##    <chr>  <date>     <dbl> <dbl> <dbl> <dbl>    <dbl>    <dbl>
##  1 DIS    2012-01-03  38.0  38.5  37.9  38.3  9704200     34.3
##  2 DIS    2012-01-04  38.2  39.0  38.1  38.8  9889900     34.8
##  3 DIS    2012-01-05  38.8  39.6  38.7  39.5 14327100     35.4
##  4 DIS    2012-01-06  39.5  40.2  39.5  39.9 14401600     35.7
##  5 DIS    2012-01-09  39.7  40.2  39.6  39.8 12145200     35.6
##  6 DIS    2012-01-10  39.5  39.9  39.2  39.6 14070900     35.5
##  7 DIS    2012-01-11  39.4  39.5  38.5  38.7 16257600     34.6
##  8 DIS    2012-01-12  38.6  38.9  38.4  38.7 10073400     34.7
##  9 DIS    2012-01-13  38.5  38.6  38.0  38.4  9877700     34.4
## 10 DIS    2012-01-17  38.7  39.0  38.4  38.5  9142800     34.5
## # … with 2,717 more rows
```

```r
(Starbucks <- tq_get("SBUX", get = "stock.prices"))
```

```
## # A tibble: 2,727 × 8
##    symbol date        open  high   low close   volume adjusted
##    <chr>  <date>     <dbl> <dbl> <dbl> <dbl>    <dbl>    <dbl>
##  1 SBUX   2012-01-03  23.4  23.5  22.6  22.6 12922400     18.8
##  2 SBUX   2012-01-04  22.7  23.3  22.6  23.1 13886800     19.2
##  3 SBUX   2012-01-05  23.1  23.2  22.8  23.2  9731800     19.3
##  4 SBUX   2012-01-06  23.2  23.5  23.1  23.4  8105400     19.4
##  5 SBUX   2012-01-09  23.4  23.4  23.1  23.3  7261600     19.4
##  6 SBUX   2012-01-10  23.5  23.6  23.2  23.4  7868000     19.5
##  7 SBUX   2012-01-11  23.3  23.6  23.2  23.6  8201000     19.6
##  8 SBUX   2012-01-12  23.7  23.8  23.5  23.8  8973400     19.8
##  9 SBUX   2012-01-13  23.8  23.8  23.5  23.7  9538200     19.7
## 10 SBUX   2012-01-17  24.0  24.0  23.8  23.9  7536600     19.8
## # … with 2,717 more rows
```

```r
(Yum <- tq_get("YUM", get = "stock.prices"))
```

```
## # A tibble: 2,727 × 8
##    symbol date        open  high   low close  volume adjusted
##    <chr>  <date>     <dbl> <dbl> <dbl> <dbl>   <dbl>    <dbl>
##  1 YUM    2012-01-03  42.9  43.1  42.0  42.1 4735660     34.3
##  2 YUM    2012-01-04  42.0  42.8  42.0  42.4 5013164     34.5
##  3 YUM    2012-01-05  42.3  42.8  42.0  42.7 5059623     34.8
##  4 YUM    2012-01-06  42.7  43.1  42.6  43.0 3761264     35.0
##  5 YUM    2012-01-09  43.0  43.1  42.6  42.9 3684620     34.9
##  6 YUM    2012-01-10  43.2  43.5  42.8  43.1 4825935     35.1
##  7 YUM    2012-01-11  43.0  44.3  43.0  43.8 8527386     35.8
##  8 YUM    2012-01-12  43.9  44.2  43.6  43.8 4792691     35.8
##  9 YUM    2012-01-13  43.6  44.1  43.6  44.0 5074646     36.0
## 10 YUM    2012-01-17  44.5  44.9  44.3  44.5 4190805     36.4
## # … with 2,717 more rows
```

```r
#mine
(Hershey <- tq_get("HSY", get = "stock.prices"))
```

```
## # A tibble: 2,727 × 8
##    symbol date        open  high   low close  volume adjusted
##    <chr>  <date>     <dbl> <dbl> <dbl> <dbl>   <dbl>    <dbl>
##  1 HSY    2012-01-03  62.1  62.4  60.7  60.8 1305700     47.8
##  2 HSY    2012-01-04  60.8  61.3  60.7  60.9 1148500     47.9
##  3 HSY    2012-01-05  61.0  61.1  60.7  60.8  870500     47.8
##  4 HSY    2012-01-06  60.9  61.0  60.6  60.7  795700     47.7
##  5 HSY    2012-01-09  60.8  61.4  60.7  61.0 1018800     47.9
##  6 HSY    2012-01-10  61.1  61.3  60.8  61    720000     47.9
##  7 HSY    2012-01-11  60.9  61.2  60.5  61.1  737800     48.0
##  8 HSY    2012-01-12  61.3  62    61.2  61.6  785900     48.4
##  9 HSY    2012-01-13  61.5  61.7  61.1  61.5  672400     48.3
## 10 HSY    2012-01-17  61.8  62    61.3  61.4  727100     48.3
## # … with 2,717 more rows
```

```r
(Nintendo <- tq_get("NTDOY", get = "stock.prices"))
```

```
## # A tibble: 2,727 × 8
##    symbol date        open  high   low close  volume adjusted
##    <chr>  <date>     <dbl> <dbl> <dbl> <dbl>   <dbl>    <dbl>
##  1 NTDOY  2012-01-03  3.45  3.52  3.45  3.50 1219500     3.50
##  2 NTDOY  2012-01-04  3.54  3.58  3.54  3.58  531500     3.58
##  3 NTDOY  2012-01-05  3.45  3.53  3.45  3.50  391000     3.50
##  4 NTDOY  2012-01-06  3.46  3.48  3.45  3.46  450500     3.46
##  5 NTDOY  2012-01-09  3.46  3.49  3.46  3.48  515500     3.48
##  6 NTDOY  2012-01-10  3.42  3.48  3.42  3.45 1092500     3.45
##  7 NTDOY  2012-01-11  3.39  3.44  3.39  3.44 1003500     3.44
##  8 NTDOY  2012-01-12  3.39  3.45  3.39  3.44 1260500     3.44
##  9 NTDOY  2012-01-13  3.39  3.39  3.33  3.35  378500     3.35
## 10 NTDOY  2012-01-17  3.42  3.45  3.38  3.39  524000     3.39
## # … with 2,717 more rows
```

```r
(BMW <- tq_get("BMWYY", get = "stock.prices"))
```

```
## # A tibble: 2,727 × 8
##    symbol date        open  high   low close volume adjusted
##    <chr>  <date>     <dbl> <dbl> <dbl> <dbl>  <dbl>    <dbl>
##  1 BMWYY  2012-01-03  23.8  24.1  23.8  23.9 102000     15.2
##  2 BMWYY  2012-01-04  24.1  24.2  24.0  24.1  42500     15.3
##  3 BMWYY  2012-01-05  24.0  24.1  23.8  24.0  24400     15.3
##  4 BMWYY  2012-01-06  23.8  23.8  23.3  23.5  14400     14.9
##  5 BMWYY  2012-01-09  24.3  24.3  23.9  24.3  32700     15.4
##  6 BMWYY  2012-01-10  24.9  25.3  24.8  25.0  45400     15.8
##  7 BMWYY  2012-01-11  25.0  25.0  24.8  24.9  30500     15.8
##  8 BMWYY  2012-01-12  25.4  25.6  25.0  25.6  15800     16.3
##  9 BMWYY  2012-01-13  24.4  24.7  23.9  24.7  27600     15.7
## 10 BMWYY  2012-01-17  26.1  26.3  26.1  26.2 158100     16.6
## # … with 2,717 more rows
```
…
